visualizing_power_plants • RUtilHub
…
      visualizing_power_plants

      visualizing_power_plants

      visualizing_power_plants.Rmd

Load and Process Data

We read the power plants data from an Excel file and convert the
location names to uppercase for consistency.

# Load power plants data
ut_power_plants <- read_excel("C:/Users/Lab 2/Desktop/tools/power_plants_data.xlsx")
ut_power_plants
#> # A tibble: 26 × 4
#>    plant_name                      location_name primary_fuel capacity_MW
#>    <chr>                           <chr>         <chr>              <dbl>
#>  1 Rampur Hydro Power Plant        roorkee       Hydro                400
#>  2 Tehri Hydro Power Plant         Tehri         Hydro               2400
#>  3 Kotawali Solar Power Plant      kotdwar       Solar                 50
#>  4 Corbett Thermal Power Plant     Nainital      Coal                1200
#>  5 Rudrapur Gas Power Plant        Rudrapur      Natural Gas          600
#>  6 Haridwar Hydro Power Plant      Haridwar      Hydro                300
#>  7 Sitarganj Wind Power Plant      Sitarganj     Wind                 100
#>  8 Rudraprayag Solar Power Project Rudraprayag   Hydro                150
#>  9 Patan Hydro Electric Project    lohaghat      Solar                 70
#> 10 Ramganga Hydro Power Plant      almora        Hydro                 80
#> # ℹ 16 more rows

# Convert location names to uppercase
ut_power_plants$location_name <- toupper(ut_power_plants$location_name)

# Extract locations
locations <- ut_power_plants$location_name
ut_power_plants
#> # A tibble: 26 × 4
#>    plant_name                      location_name primary_fuel capacity_MW
#>    <chr>                           <chr>         <chr>              <dbl>
#>  1 Rampur Hydro Power Plant        ROORKEE       Hydro                400
#>  2 Tehri Hydro Power Plant         TEHRI         Hydro               2400
#>  3 Kotawali Solar Power Plant      KOTDWAR       Solar                 50
#>  4 Corbett Thermal Power Plant     NAINITAL      Coal                1200
#>  5 Rudrapur Gas Power Plant        RUDRAPUR      Natural Gas          600
#>  6 Haridwar Hydro Power Plant      HARIDWAR      Hydro                300
#>  7 Sitarganj Wind Power Plant      SITARGANJ     Wind                 100
#>  8 Rudraprayag Solar Power Project RUDRAPRAYAG   Hydro                150
#>  9 Patan Hydro Electric Project    LOHAGHAT      Solar                 70
#> 10 Ramganga Hydro Power Plant      ALMORA        Hydro                 80
#> # ℹ 16 more rows
…
